[gd_scene load_steps=34 format=2]

[ext_resource path="res://Assets/Sprites/PoofAnim/Anim_Deathpouf0008.png" type="Texture" id=1]
[ext_resource path="res://Assets/Sprites/PoofAnim/Anim_Deathpouf0009.png" type="Texture" id=2]
[ext_resource path="res://Assets/Sprites/PoofAnim/Anim_Deathpouf0003.png" type="Texture" id=3]
[ext_resource path="res://Assets/Sprites/PoofAnim/Anim_Deathpouf0002.png" type="Texture" id=4]
[ext_resource path="res://Assets/Sprites/PoofAnim/Anim_Deathpouf0004.png" type="Texture" id=5]
[ext_resource path="res://Assets/Sprites/PoofAnim/Anim_Deathpouf0005.png" type="Texture" id=6]
[ext_resource path="res://Assets/Sprites/PoofAnim/Anim_Deathpouf0006.png" type="Texture" id=7]
[ext_resource path="res://Assets/Sprites/PoofAnim/Anim_Deathpouf0007.png" type="Texture" id=8]
[ext_resource path="res://Assets/Sprites/PoofAnim/Anim_Deathpouf0010.png" type="Texture" id=9]
[ext_resource path="res://Assets/Sprites/PoofAnim/Anim_Deathpouf0011.png" type="Texture" id=10]
[ext_resource path="res://Assets/Sprites/PoofAnim/Anim_Deathpouf0012.png" type="Texture" id=11]
[ext_resource path="res://Assets/Sprites/PoofAnim/Anim_Deathpouf0013.png" type="Texture" id=12]
[ext_resource path="res://Assets/Sprites/PoofAnim/Anim_Deathpouf0014.png" type="Texture" id=13]
[ext_resource path="res://Assets/Sprites/PoofAnim/Anim_Deathpouf0015.png" type="Texture" id=14]
[ext_resource path="res://Assets/Sprites/PoofAnim/Anim_Deathpouf0016.png" type="Texture" id=15]
[ext_resource path="res://Assets/Sprites/PoofAnim/Anim_Deathpouf0017.png" type="Texture" id=16]
[ext_resource path="res://Assets/Sprites/PoofAnim/Anim_Deathpouf0018.png" type="Texture" id=17]
[ext_resource path="res://Assets/Sprites/PoofAnim/Anim_Deathpouf0019.png" type="Texture" id=18]
[ext_resource path="res://Assets/Sprites/PoofAnim/Anim_Deathpouf0020.png" type="Texture" id=19]
[ext_resource path="res://Assets/Sprites/PoofAnim/Anim_Deathpouf0021.png" type="Texture" id=20]
[ext_resource path="res://Assets/Sprites/PoofAnim/Anim_Deathpouf0022.png" type="Texture" id=21]
[ext_resource path="res://Assets/Sprites/PoofAnim/Anim_Deathpouf0023.png" type="Texture" id=22]
[ext_resource path="res://Assets/Sprites/PoofAnim/Anim_Deathpouf0024.png" type="Texture" id=23]
[ext_resource path="res://Assets/Sprites/PoofAnim/Anim_Deathpouf0025.png" type="Texture" id=24]
[ext_resource path="res://Assets/Sprites/PoofAnim/Anim_Deathpouf0026.png" type="Texture" id=25]
[ext_resource path="res://Assets/Sprites/PoofAnim/Anim_Deathpouf0027.png" type="Texture" id=26]
[ext_resource path="res://Assets/Sprites/PoofAnim/Anim_Deathpouf0028.png" type="Texture" id=27]
[ext_resource path="res://Assets/Sprites/PoofAnim/Anim_Deathpouf0029.png" type="Texture" id=28]
[ext_resource path="res://Assets/Sprites/PoofAnim/Anim_Deathpouf0030.png" type="Texture" id=29]
[ext_resource path="res://Assets/Sprites/PoofAnim/Anim_Deathpouf0031.png" type="Texture" id=30]
[ext_resource path="res://Assets/Sprites/PoofAnim/Anim_Deathpouf0032.png" type="Texture" id=31]
[ext_resource path="res://Objects/Invaders/AnimOnCreate.gd" type="Script" id=32]

[sub_resource type="SpriteFrames" id=1]
animations = [ {
"frames": [ ExtResource( 4 ), ExtResource( 3 ), ExtResource( 5 ), ExtResource( 6 ), ExtResource( 7 ), ExtResource( 8 ), ExtResource( 1 ), ExtResource( 2 ), ExtResource( 9 ), ExtResource( 10 ), ExtResource( 11 ), ExtResource( 12 ), ExtResource( 13 ), ExtResource( 14 ), ExtResource( 15 ), ExtResource( 16 ), ExtResource( 17 ), ExtResource( 18 ), ExtResource( 19 ), ExtResource( 20 ), ExtResource( 21 ), ExtResource( 22 ), ExtResource( 23 ), ExtResource( 24 ), ExtResource( 25 ), ExtResource( 26 ), ExtResource( 27 ), ExtResource( 28 ), ExtResource( 29 ), ExtResource( 30 ), ExtResource( 31 ), null ],
"loop": false,
"name": "default",
"speed": 30.0
} ]

[node name="AnimatedSprite" type="AnimatedSprite"]
position = Vector2( 37.42, 0 )
frames = SubResource( 1 )
script = ExtResource( 32 )
