[gd_scene load_steps=6 format=2]

[ext_resource path="res://Objects/Board/Board.tscn" type="PackedScene" id=1]
[ext_resource path="res://Objects/Spawner/Spawner.tscn" type="PackedScene" id=2]
[ext_resource path="res://Objects/Goal/Goal.tscn" type="PackedScene" id=3]
[ext_resource path="res://Objects/Obstacles/Obstacle.tscn" type="PackedScene" id=4]
[ext_resource path="res://GUI/Background/FoggyBackground.tscn" type="PackedScene" id=5]

[node name="0_blank" type="Node2D"]

[node name="FoggyBackground" parent="." instance=ExtResource( 5 )]

[node name="Board" parent="." groups=[
"board",
] instance=ExtResource( 1 )]
gap = 0.0

[node name="Camera2D" type="Camera2D" parent="."]
anchor_mode = 0
current = true

[node name="Goal" parent="." instance=ExtResource( 3 )]
position = Vector2( 227.418, 47.1802 )

[node name="Obstacles" type="Node2D" parent="."]

[node name="Obstacle" parent="Obstacles" instance=ExtResource( 4 )]
position = Vector2( 531.851, 245.796 )

[node name="Spawners" type="Node2D" parent="."]

[node name="Spawner" parent="Spawners" instance=ExtResource( 2 )]
position = Vector2( 282.564, 652.792 )
object_np = "res://Objects/Invaders/Peon/Peon.tscn"
number = 1
