[gd_scene load_steps=3 format=2]

[ext_resource path="res://GUI/Screens/5_Screen/Intertitre5-GGJ.png" type="Texture" id=1]
[ext_resource path="res://GUI/Screens/Screen.gd" type="Script" id=2]

[node name="5_Screen" type="Control"]
anchor_right = 1.0
anchor_bottom = 1.0
script = ExtResource( 2 )
__meta__ = {
"_edit_use_anchors_": false
}

[node name="TextureRect" type="TextureRect" parent="."]
anchor_right = 1.0
anchor_bottom = 1.0
texture = ExtResource( 1 )
expand = true
