[gd_scene load_steps=2 format=2]

[ext_resource path="res://Assets/Audio/theme_3.ogg" type="AudioStream" id=1]

[node name="SoundSysteme" type="Node"]

[node name="Music_1" type="AudioStreamPlayer" parent="."]
stream = ExtResource( 1 )
autoplay = true
